…
# Number of ODF communities in each district

basisghana |>
  group_by(region, district) |> 
  summarise(odfs = n())
#> `summarise()` has grouped output by 'region'. You can override using the
#> `.groups` argument.
#> # A tibble: 60 × 3
#> # Groups:   region [5]
#>    region          district               odfs
#>    <chr>           <chr>                 <int>
#>  1 Central Region  Abura Asebu Kwamankes     2
#>  2 Central Region  Ajumako Enyan Essiam      4
#>  3 Central Region  Asikuma Odoben Brakwa     3
#>  4 Central Region  Assin South               2
#>  5 Central Region  Gomoa East                4
#>  6 Northern Region Bole                     37
#>  7 Northern Region Bunkpurugu               17
#>  8 Northern Region Central Gonja            32
#>  9 Northern Region Chereponi                68
#> 10 Northern Region Damongo                   9
#> # ℹ 50 more rows

# Number of ODF communities in each district

basisghana |>
  group_by(council) |> 
  summarise(odfs = n())
#> # A tibble: 288 × 2
#>    council     odfs
#>    <chr>      <int>
#>  1 Abakrampa      2
#>  2 Afife          3
#>  3 Aflao Wego     2
#>  4 Afransi        2
#>  5 Agbedrafor     2
#>  6 Agumatsa       7
#>  7 Ahamansu      11
#>  8 Ajumako        1
#>  9 Anfoega        2
#> 10 Anyako         4
#> # ℹ 278 more rows
```
